side 1101 518 1306 669
side 1083 686 1237 930
side 849 1 995 206
correct 655 1136 807 1288
correct 1057 82 1204 225
side 1157 107 1359 306
side 1286 167 1482 400
side 1281 241 1520 387
side 1072 265 1220 496
side 1258 368 1443 610