side 852 497 912 553
correct 952 378 1002 428
side 993 266 1060 326
correct 1011 211 1055 255
side 1178 435 1224 505
side 1172 377 1236 447
correct 1229 544 1277 592
correct 1231 204 1281 254
correct 736 550 783 594
correct 785 147 835 200
side 781 28 843 98
correct 789 207 835 257
side 823 262 895 330
side 848 330 886 394