side 818 825 888 884
side 931 759 980 823
side 1198 747 1246 806
side 986 734 1032 799
side 1076 727 1136 779
side 744 714 810 767
side 1151 657 1199 725
side 885 651 931 713
side 864 621 923 675
side 1134 582 1191 626
side 828 509 878 575
side 1269 502 1327 566
side 867 987 921 1041
side 912 922 969 990
side 1180 908 1234 969
upwards 1084 899 1130 943
side 1035 899 1100 941