side 1196 597 1248 653
correct 1100 618 1140 658
side 1134 616 1196 670
side 967 624 1033 676
side 718 617 764 685
side 884 633 946 683
side 1053 633 1097 685
side 1201 668 1259 732
correct 946 689 980 724
side 886 677 950 735
side 1053 682 1103 736
side 1036 712 1096 776
side 989 717 1037 776
side 1103 731 1163 797
side 838 743 901 787
side 1151 759 1213 827
side 898 774 948 834
side 950 797 1007 853
side 785 801 846 863
side 1145 831 1212 883
side 1009 835 1064 886
side 837 833 891 899
side 876 849 940 912
side 768 858 828 906
correct 1118 892 1156 930
side 1009 898 1069 954
side 935 898 999 966
side 847 904 912 964
side 1206 936 1272 996
correct 1122 948 1158 985
side 1041 949 1102 993
correct 904 954 947 998
side 722 1018 782 1062
side 1202 496 1272 554
side 1126 506 1190 552
side 764 507 810 571
side 713 523 775 579
side 991 571 1054 618
side 908 570 974 627
correct 773 587 813 629