upwards 1099 625 1145 673
upwards 882 687 925 731
side 992 718 1057 785
side 1273 726 1342 778
upwards 1160 788 1206 834
correct 938 796 982 841
side 1031 788 1097 854
side 1262 840 1320 909
side 941 847 1006 913
side 868 854 930 916
correct 1160 896 1205 942
side 1272 898 1331 963
side 942 903 1005 969
side 979 953 1043 1005
upwards 1095 458 1139 502
correct 880 473 918 514
side 1260 490 1332 559
side 927 522 981 592
side 1203 567 1253 636