side 1097 554 1159 600
correct 1100 511 1140 549
side 988 567 1050 604
side 969 675 1027 726
side 927 400 973 461
side 915 618 972 669
correct 880 833 921 873
upwards 825 732 865 769
upwards 825 619 864 655
side 817 572 860 620
correct 773 672 813 711
side 1207 832 1272 875
upwards 1207 394 1246 433
correct 1207 786 1246 822
correct 1206 506 1247 544