side 859 1305 934 1349
side 893 1135 947 1199
side 918 1365 974 1413
correct 945 1481 986 1525
side 986 1196 1035 1252
side 996 1457 1044 1525
side 1004 1064 1062 1113
side 1056 1230 1110 1293
correct 1107 1422 1153 1469
side 1145 1478 1210 1528
side 1166 1426 1219 1495
side 687 1423 754 1468
correct 768 1422 814 1469
correct 773 1190 818 1236
side 821 1368 871 1438
side 829 1245 899 1291