side 851 539 917 596
side 906 555 950 613
side 903 417 969 483
side 961 547 1025 607
side 1000 522 1063 592
side 1013 708 1083 768
side 1018 488 1086 541
correct 1069 442 1112 486
side 1101 756 1169 812
side 1154 714 1218 756
side 733 767 787 833
correct 795 876 838 918