correct 379 188 634 420
correct 1844 556 1883 595
correct 1733 560 1776 601
side 1602 562 1665 608
correct 1517 574 1555 612
correct 1464 633 1500 669
correct 1684 678 1725 716
correct 1793 723 1833 761
correct 1686 734 1724 771
correct 1744 836 1782 873
correct 1460 520 1499 561
side 781 1358 819 1397
correct 600 1369 636 1405
side 694 1505 735 1566
correct 665 1262 698 1295
side 1610 1200 1659 1263
side 1691 1271 1753 1311
side 1668 1331 1727 1382
side 1701 1381 1757 1419
side 1864 1389 1917 1438
side 1885 1430 1944 1476
side 1483 1428 1544 1481
upwards 1561 1498 1599 1536
side 1711 1087 1759 1149
correct 1833 1113 1871 1152
side 1608 1109 1670 1158
side 1941 1141 1976 1203
side 1778 1142 1813 1206
side 1720 1165 1775 1221
side 1886 1166 1923 1231