side 1051 404 1256 555
side 1033 572 1187 816
side 799 1 946 93
correct 605 1022 757 1174
correct 1006 1 1154 111
side 1107 1 1269 192
side 1022 151 1170 382
side 1207 254 1269 497
side 1314 469 1365 531
side 1270 506 1297 564
side 1371 526 1435 566
correct 1368 580 1406 620
correct 1366 742 1408 782
correct 1593 254 1631 294
side 295 1327 354 1378
side 568 1344 629 1385
side 250 1397 295 1454
side 416 1483 456 1534
side 238 1500 299 1549
side 641 1501 679 1549
side 694 1526 733 1585
side 701 1576 744 1617
side 258 1603 319 1652
side 408 1238 460 1285
side 646 1235 686 1297
side 264 1262 317 1321
side 753 1265 793 1327
side 1418 1646 1472 1704
side 1432 1744 1491 1798
correct 1270 1753 1307 1795
correct 1379 1756 1418 1794
correct 1376 1810 1414 1848
correct 1431 1976 1468 2014
correct 1270 2032 1304 2048
upwards 1377 1593 1416 1634