upwards 922 318 962 361
upwards 675 343 718 383
correct 878 351 915 390
upwards 822 378 866 420
correct 903 396 942 434
upwards 886 467 927 508
upwards 766 480 805 521
upwards 960 488 983 530
upwards 839 501 877 539
side 761 527 831 570
upwards 899 592 939 635
side 896 176 950 238
upwards 845 303 883 344
upwards 1106 334 1144 373
side 1206 366 1257 423
side 1086 389 1147 433
side 1166 388 1209 447
side 1043 488 1100 539
side 1100 495 1158 548
side 1336 518 1373 579
side 1066 549 1127 595
side 991 550 1050 599
side 1275 602 1315 660
side 984 91 1021 155
side 1042 116 1081 180
upwards 1175 209 1210 247
correct 1159 225 1193 262
side 1269 244 1309 308
side 984 269 993 322
correct 1108 282 1146 320
correct 994 288 1032 327
side 114 982 165 1044
side 46 1020 96 1077
side 171 1039 235 1079
correct 168 1093 206 1133
correct 166 1255 208 1295
correct 393 767 431 807
correct 1183 969 1220 1008
correct 1459 974 1493 1009
correct 1513 973 1547 1009
correct 1673 972 1711 1010
correct 1402 973 1438 1011
correct 1618 975 1654 1011
correct 1563 976 1600 1012
correct 1294 1026 1330 1063
correct 1183 1027 1219 1063
correct 1404 1026 1440 1065
correct 1349 1027 1386 1065
correct 1510 1027 1547 1065
correct 1566 1027 1601 1065
correct 1674 1027 1710 1065
correct 1457 1028 1494 1065
correct 1294 1079 1332 1119
correct 1350 1080 1386 1118
correct 1239 1083 1275 1118
correct 1184 1081 1223 1120
correct 1460 1081 1495 1119
correct 1510 1081 1547 1119
correct 1567 1081 1602 1119
correct 1292 1134 1330 1173
correct 1460 1135 1495 1171
correct 1620 1135 1655 1171
correct 1405 1136 1442 1174
correct 1351 1189 1385 1224
correct 1406 1189 1441 1225
correct 1618 1189 1656 1226
correct 1512 1189 1546 1225
correct 1565 1189 1600 1225
correct 1184 1190 1219 1226
correct 1296 1190 1334 1226
correct 1458 1191 1494 1227
correct 1621 1242 1655 1279
correct 1405 1243 1441 1278
correct 1296 1242 1331 1278
correct 1240 1245 1275 1279
correct 1352 1244 1387 1280
correct 1513 1244 1549 1282
correct 1671 1245 1708 1281
correct 1184 1246 1222 1283
correct 1565 1246 1601 1285
correct 1617 1294 1655 1332
correct 1673 1295 1709 1333
correct 1405 1299 1439 1333
correct 1180 805 1217 844
correct 1292 806 1330 845
correct 1624 809 1659 843
correct 1675 808 1712 846
correct 1402 808 1442 849
correct 1566 810 1602 848
correct 1403 860 1441 901
correct 1455 862 1492 899
correct 1512 863 1547 899
correct 1675 866 1711 904
correct 1461 916 1495 952
correct 1238 915 1274 955
correct 1403 916 1439 955
correct 1623 918 1656 955
correct 1290 918 1328 956
correct 1511 919 1547 956
correct 1673 921 1709 957