side 945 820 989 868
side 1016 518 1060 580
side 1020 870 1070 906
side 1021 649 1077 697
side 1064 762 1108 822
side 1124 764 1168 822
side 1128 654 1180 708
side 1206 873 1264 911
side 746 506 790 568
side 846 810 890 870