side 998 865 1044 927
side 1021 854 1077 909
side 786 685 842 749
side 1267 686 1324 745
side 384 548 438 608
side 396 468 459 534
side 1318 386 1382 430
side 1620 1094 1671 1160
side 869 960 925 1016
side 456 891 498 951