side 865 876 911 922
correct 1043 870 1081 906
correct 828 867 866 903
side 987 843 1025 905
correct 1043 815 1081 855
side 1097 791 1141 853
correct 884 760 918 798
correct 1047 759 1083 797
side 769 755 833 797
side 695 709 753 753
correct 884 707 920 745
side 1154 683 1196 745
side 1143 652 1193 710
side 1209 653 1269 703
side 1090 631 1138 693
side 1189 584 1249 640
side 1154 571 1192 635
side 883 571 921 633
correct 777 545 815 583
side 877 1034 921 1098
correct 1153 1037 1191 1075
side 978 1011 1026 1073
side 907 923 971 969
side 825 922 885 962
upwards 771 919 807 959
side 1037 903 1081 963