upwards 1055 892 1093 931
upwards 890 892 929 931
upwards 720 890 759 929
upwards 1211 841 1249 879
side 980 828 1041 880
upwards 889 781 924 820
upwards 1054 732 1093 771
upwards 836 673 876 713
upwards 1214 571 1252 611
upwards 1002 564 1040 602
upwards 784 561 824 603
upwards 1211 1058 1248 1098
upwards 939 1059 977 1098
upwards 717 1055 754 1093
upwards 1106 1000 1143 1038
upwards 829 998 869 1038