side 1145 871 1193 934
side 1099 838 1144 899
correct 1318 846 1356 887
side 1210 832 1273 880
upwards 992 838 1030 874
side 1144 818 1194 876
side 1326 790 1362 851
side 1207 786 1248 844
side 1154 786 1197 845
upwards 1704 784 1756 825
correct 1049 783 1086 819
side 1096 758 1143 822
side 994 758 1038 817
side 1161 723 1221 769
side 1105 672 1163 727
side 1358 620 1426 664
correct 943 618 979 655
correct 1329 567 1372 606
side 1087 548 1144 604
correct 932 1049 970 1088
side 877 970 924 1035
side 1204 927 1249 990