side 892 874 950 940
side 999 623 1057 683
side 1069 1100 1129 1151
side 1094 996 1162 1052
correct 1223 945 1267 989
side 1223 890 1287 950
side 729 629 781 685
side 783 672 849 728
side 851 1056 908 1104