correct 1095 874 1128 910
correct 1353 794 1389 828
correct 1081 763 1117 801
correct 1344 685 1375 721
correct 1451 675 1485 711
correct 1163 1029 1200 1065
correct 1267 1019 1303 1055
correct 1372 954 1410 993
correct 1095 927 1131 962