side 967 629 1003 693
side 785 649 849 693
side 861 673 917 721
side 1106 719 1160 757
side 746 715 792 777
side 1220 737 1284 775
side 946 801 992 857
correct 1122 869 1160 909
side 1054 1022 1112 1066
side 941 527 993 587
side 897 591 959 633