upwards 409 403 446 430
upwards 297 404 336 430
upwards 519 407 556 430
upwards 185 235 226 276
upwards 410 237 448 275
side 1604 125 1655 187
side 1536 163 1586 220
side 1661 182 1725 222
correct 1658 236 1696 276
correct 1656 398 1699 430
correct 39 694 79 732
side 243 707 301 761
correct 145 814 183 852
correct 252 819 290 857
side 116 865 179 906
side 249 871 313 915
side 285 930 341 988
correct 350 989 389 1028
side 62 1015 110 1056
upwards 128 1030 166 1069
correct 52 529 91 568
correct 376 606 414 642
side 1365 915 1411 961
correct 1195 931 1233 967
correct 1410 934 1448 971
side 1251 932 1289 995
correct 1195 983 1233 1022
side 1136 985 1179 1046
correct 1358 1039 1392 1077
correct 1193 1041 1229 1078
side 1444 1040 1507 1083
side 1523 1084 1581 1128
correct 1356 1092 1392 1130
side 1080 1093 1122 1154
side 1083 1127 1134 1185
side 1007 1134 1067 1184
side 1138 1145 1186 1206
side 1027 1197 1087 1253
side 1084 1203 1122 1266
side 1356 1204 1393 1267
correct 1462 1254 1499 1292
side 1355 739 1400 803
correct 1086 762 1123 800
side 1250 764 1298 826
side 1305 868 1369 914
side 1391 875 1451 915
upwards 1469 878 1506 918
side 1195 875 1239 934