correct 958 609 994 644
upwards 1074 617 1114 660
side 871 624 924 680
correct 1005 639 1038 675
upwards 1319 642 1362 682
correct 1122 650 1159 689
correct 927 655 965 691
side 856 676 917 712
side 780 670 824 726
upwards 1170 677 1214 719
correct 1095 695 1134 733
side 945 723 1008 770
side 722 735 786 776
upwards 870 744 908 783
correct 992 754 1031 792
upwards 1110 766 1151 807
correct 917 776 953 813
upwards 1232 779 1271 820
upwards 721 780 760 819
side 643 775 688 838
upwards 1037 788 1076 829
upwards 1159 800 1197 838
correct 966 806 1000 840
upwards 768 808 811 847
side 1205 826 1275 869
correct 1009 834 1050 872
upwards 860 864 897 907
upwards 984 881 1021 920
upwards 1097 891 1137 934
side 908 895 972 941
correct 1087 1008 1130 1054
upwards 1059 1059 1102 1100
upwards 904 379 945 420
correct 876 429 913 467
side 1086 475 1140 537
upwards 890 508 928 547
upwards 1013 514 1051 552
side 993 547 1029 582
upwards 864 550 902 588
upwards 788 570 824 606
side 976 574 1021 628
upwards 1153 602 1191 643