side 917 874 955 934
side 1027 823 1065 885
side 973 820 1011 882
side 761 759 797 819
side 851 743 901 783
side 1134 698 1172 754
side 983 685 1025 745
correct 658 618 696 656
side 909 1118 969 1168
side 848 1064 894 1128
side 777 949 839 987
correct 1135 908 1173 946
side 754 893 792 953