correct 1152 845 1188 883
correct 1097 845 1135 883
correct 880 844 918 878
side 829 833 885 873
side 1043 787 1097 849
correct 1153 791 1189 829
correct 989 787 1023 827
correct 881 788 917 826
side 1189 734 1247 794
correct 1045 735 1083 775
correct 989 735 1027 773
correct 937 734 973 772
side 1057 719 1119 761
correct 1205 684 1241 722
correct 1099 684 1135 722
correct 1041 682 1079 722
correct 1153 683 1187 719
correct 987 680 1025 718
side 941 674 993 712
side 1262 625 1300 691
correct 990 629 1026 663
correct 1047 627 1081 663
side 1319 571 1371 631
correct 883 572 919 610
side 774 567 840 607
side 1129 559 1191 611
correct 881 517 919 559
correct 1262 1009 1300 1049
upwards 1149 1007 1191 1049
correct 1043 1009 1079 1045
side 1246 901 1292 953
correct 825 899 861 937