side 844 877 883 938
side 737 872 800 915
correct 902 873 939 911
correct 1013 873 1047 909
correct 1066 871 1102 905
side 824 818 883 864
side 707 821 770 860
side 767 818 831 863
correct 1067 818 1103 855
side 1109 798 1157 857
side 887 762 941 819
side 992 763 1046 818
correct 958 766 995 804
correct 1225 763 1264 800
side 1113 740 1158 801
correct 900 713 934 746
correct 958 710 992 747
correct 1011 709 1048 745
side 1150 702 1211 746
side 787 683 830 746
side 1063 679 1101 742
side 1231 657 1271 716
side 897 649 961 696
side 1168 630 1211 691
correct 735 601 775 640
side 1171 586 1232 638
side 1006 578 1056 640
side 943 576 994 638
correct 1114 543 1152 583
side 1223 516 1261 580
side 1015 1039 1049 1104
side 720 1020 776 1082
side 902 982 968 1023
correct 1228 979 1268 1017
side 1069 969 1126 1022
side 1067 948 1108 982
correct 905 926 942 963
side 958 913 1014 967
side 1174 903 1231 963
side 1067 891 1102 950