side 1075 875 1139 919
side 1136 867 1196 919
side 1209 854 1247 912
side 996 827 1056 869
side 939 769 995 819
side 1103 768 1165 814
side 991 758 1051 810
side 1047 747 1093 809
side 1101 700 1159 754
side 1273 687 1305 751
side 1044 659 1088 723
side 1206 657 1248 721
side 1246 655 1304 709
side 1130 655 1192 699
side 935 648 983 704
side 981 643 1029 701
side 1148 603 1194 663
side 969 594 1027 646
side 1085 589 1131 639
side 1197 584 1241 638
side 1265 574 1305 642
side 1213 557 1265 601
side 1029 534 1079 590
side 1153 524 1191 586
side 1159 1023 1213 1083
side 1104 987 1160 1043
side 917 939 973 985
upwards 1101 933 1137 971
side 1212 912 1262 972
side 1001 914 1049 968