side 1020 651 1064 694
side 988 649 1022 700
side 1034 725 1072 785
side 981 726 1018 785
side 934 756 978 804
side 934 805 983 841
upwards 1036 808 1071 842
side 979 802 1020 861
side 990 822 1038 856
side 506 942 570 987
side 1116 1344 1178 1381
side 765 525 825 563