side 888 1142 950 1192
correct 912 1098 948 1134
correct 967 766 1003 802
side 1013 906 1059 964
side 1022 854 1074 906
side 1070 958 1116 1020
side 1076 1069 1114 1131
side 1128 907 1180 963
side 802 801 856 855
side 834 1032 896 1080
side 855 1128 893 1192