side 554 896 615 933
side 282 855 343 904
correct 474 850 511 886
side 609 843 671 887
side 416 823 454 882
side 282 807 332 865
side 469 797 509 858
correct 365 793 401 831
correct 412 791 450 827
side 303 766 346 829
side 466 740 511 798
side 554 737 618 788
side 278 682 347 732
side 499 682 565 725
side 505 564 568 617
side 235 568 296 609
side 408 1067 471 1106
side 549 1057 611 1098
side 576 955 623 1020
upwards 461 953 507 995
side 523 900 578 954
side 359 902 413 951