side 1112 574 1166 630
side 1044 802 1104 848
upwards 1008 544 1050 584
upwards 986 941 1024 979
side 972 717 1030 769
side 970 842 1014 888
side 917 496 977 542
side 910 850 964 902
side 854 862 896 924
side 810 473 862 531
side 814 904 858 960
correct 810 650 848 686
correct 1294 819 1330 853
side 1253 658 1297 720
side 1196 878 1256 930
side 1160 452 1222 496