side 1150 779 1184 837
side 1237 785 1293 833
side 1194 809 1240 867
side 1141 855 1199 891
side 1030 1013 1090 1047
side 1255 1021 1305 1081
side 1153 1060 1185 1116
side 1213 1113 1267 1165
side 668 375 728 415