side 571 870 617 936
upwards 884 882 922 920
side 1075 875 1139 919
side 1135 865 1195 917
side 1209 854 1247 912
side 998 834 1054 877
side 991 818 1052 856
side 1103 768 1166 814
side 990 767 1054 816
side 912 768 975 813
side 810 752 868 812
side 1048 748 1093 809
side 1101 700 1160 754
side 980 694 1024 753
side 1273 687 1306 752
side 1206 657 1248 721
side 882 667 942 708
side 1246 656 1304 709
side 1045 660 1109 698
side 1130 656 1192 699
side 936 648 983 704
side 981 643 1030 701
side 1148 603 1194 664
upwards 940 608 974 648
side 969 594 1027 646
side 1086 589 1131 640
side 1197 584 1241 638
side 1265 574 1306 642
side 1214 558 1265 601
side 1030 534 1079 590
side 1153 524 1191 586
side 682 528 750 567
side 822 491 885 537
side 924 1204 978 1267
side 1160 1023 1213 1083
side 1104 988 1160 1043
side 595 976 655 1035
side 981 939 1029 993
side 917 942 974 987
side 1028 934 1089 984
upwards 1101 933 1137 972
upwards 1266 932 1309 973
side 1212 912 1262 972