side 858 912 918 952
side 880 996 924 1058
correct 884 856 922 894
correct 886 748 922 782
correct 890 693 924 729
side 931 912 977 972
side 936 1026 974 1088
side 932 964 978 1028
correct 940 692 978 728
side 938 638 998 686
side 976 854 1034 908
side 978 749 1032 803
correct 991 800 1029 838
correct 996 532 1032 570
side 994 638 1056 682
correct 1050 861 1082 895
correct 1048 803 1086 837
correct 1050 748 1086 784
side 1049 584 1093 646
side 1050 966 1112 1008
side 1054 694 1116 732
side 1080 524 1138 564
side 1100 834 1146 898
side 1104 584 1166 628
correct 1156 1020 1194 1060
side 1157 564 1209 624
side 1155 739 1217 789
side 1157 802 1219 852
correct 1212 643 1252 681
side 1215 534 1279 572
side 692 746 756 780
side 713 1019 775 1075
side 772 827 814 893
correct 778 527 816 567
side 774 670 826 726
side 813 688 847 728
correct 832 854 870 890
side 828 781 882 837
side 832 564 892 622
side 846 694 904 728