upwards 1305 635 1343 673
upwards 1081 687 1125 727
upwards 1189 739 1231 779
upwards 1405 743 1453 781
upwards 1140 793 1178 833
upwards 1354 795 1394 833
upwards 1519 851 1563 891
upwards 1187 902 1227 942
upwards 1299 955 1339 995
upwards 1081 956 1119 998
upwards 1409 959 1447 997
upwards 1193 523 1235 563
upwards 1031 577 1069 617
upwards 1469 579 1509 619