side 1688 638 1756 689
correct 1513 647 1549 685
side 1628 652 1684 712
side 1556 700 1613 760
side 1497 711 1539 758
side 1667 749 1726 805
side 1489 759 1552 798
correct 1570 763 1609 802
side 1451 758 1508 817
side 1395 812 1457 865
side 1622 815 1690 866
side 1452 852 1510 907
side 1259 857 1320 904
side 1741 882 1794 945
side 1623 929 1689 967
side 1680 932 1743 989
side 1562 986 1603 1046
side 1559 519 1616 578
side 1461 571 1513 622
side 1377 581 1441 631
side 1289 587 1351 628
side 1746 592 1813 650