correct 1064 676 1108 720
side 844 672 905 736
side 1063 787 1128 846
side 1167 790 1221 854
side 839 834 905 898
side 949 837 1011 905
side 1008 843 1058 903
side 1224 934 1280 992
side 1167 947 1233 1009
side 778 1001 828 1069
side 831 540 892 606
side 1016 571 1052 631