side 1127 578 1181 644
correct 1128 499 1170 540
side 1086 866 1155 926
upwards 1073 499 1115 543
side 1582 683 1656 737
side 1551 522 1623 577
correct 1545 974 1590 1018
side 1528 836 1586 903
correct 1524 692 1570 735
side 1472 837 1530 905
side 1407 570 1479 639
side 1414 731 1462 798
correct 1357 758 1401 802
side 1350 679 1406 745
side 1344 795 1410 860
side 1315 912 1377 966
side 1307 959 1366 1026
correct 1310 817 1354 859
correct 1303 760 1344 803
side 1289 706 1349 770
correct 1297 648 1341 692
correct 1295 541 1341 585
correct 1295 599 1335 637
side 1257 871 1320 915
correct 1252 765 1289 801
correct 1246 652 1290 696
correct 1246 710 1286 749
correct 1238 601 1280 643
side 1196 754 1262 812
side 1187 689 1249 755
upwards 1155 933 1201 978