side 1085 892 1146 928
side 1222 880 1279 926
side 1280 884 1335 917
side 1332 869 1388 923
side 990 868 1049 902
side 943 842 981 901
side 1164 840 1201 900
side 1218 839 1252 900
side 1108 839 1151 898
side 1060 840 1101 897
side 1043 837 1098 892
side 976 839 1033 885
correct 1277 835 1315 873
side 1082 809 1133 865
side 1147 812 1208 851
side 1051 787 1087 845
side 1042 790 1101 824
side 969 787 1028 825
side 1118 783 1174 819
side 1139 776 1197 815
side 1253 767 1310 818
side 1199 764 1255 816
side 1011 768 1047 813
side 1101 745 1139 804
side 1162 727 1199 788
side 1123 727 1176 778
side 962 735 1020 769
side 812 719 871 772
correct 1270 726 1310 760
side 1229 716 1275 754
side 1216 705 1254 766
side 1085 712 1134 756
side 934 690 978 748
side 976 686 1023 726
side 917 679 973 712
side 1056 674 1119 712
side 983 665 1038 719
side 1135 666 1197 711
side 891 655 926 708
side 1001 659 1057 695
side 1214 649 1268 705
side 824 625 870 684
upwards 1050 624 1086 661
side 869 549 923 607
side 1254 536 1306 599
side 1113 1040 1159 1101
side 1265 1040 1320 1096
side 1160 1036 1207 1095
side 1100 1039 1141 1080
side 1004 1016 1038 1079
side 958 1007 994 1066
correct 1114 1003 1148 1038
side 945 1003 1004 1037
upwards 1282 1001 1318 1037
correct 1226 1001 1264 1037
side 1056 979 1096 1038
side 1003 989 1062 1025
side 1164 947 1216 1005
side 977 944 1033 980
side 1058 928 1105 982
side 1221 919 1261 980
side 1003 898 1044 956
side 1055 895 1090 953