side 1114 181 1194 245
side 1096 336 1164 410
side 1073 123 1135 179
correct 1064 14 1107 60
side 1016 288 1065 344
side 999 11 1061 87
side 985 424 1049 480
side 934 243 1000 315
correct 895 70 945 120
side 840 12 906 62
side 825 42 891 119
side 1293 66 1367 125
correct 1233 68 1286 122
correct 1228 300 1282 354
side 1177 101 1231 173
side 1148 242 1224 303