side 1651 124 1709 172
side 1770 155 1821 212
side 1650 178 1711 222
side 1378 178 1434 224
side 1730 177 1773 236
side 1491 241 1551 280
side 1607 277 1664 328
side 1664 284 1722 337
side 1452 300 1502 360
side 1630 338 1691 384
side 1555 339 1614 388
correct 1723 14 1757 51
correct 1673 71 1709 109
correct 1560 77 1597 116
side 685 907 736 969
side 617 945 667 1002
side 742 964 806 1004
correct 739 1018 777 1058
correct 737 1180 779 1220
correct 964 692 1002 732
side 1875 924 1928 980
side 1709 953 1752 1014
side 1740 1026 1799 1069
side 1666 1068 1705 1113
side 1643 730 1689 790
side 1748 812 1803 864