side 986 847 1030 890
side 1028 841 1062 892
side 978 755 1016 815
side 1033 756 1070 815
side 1072 736 1116 784
side 1068 699 1117 735
upwards 980 698 1015 732
side 1031 680 1072 739
side 1012 684 1060 718
side 1480 554 1544 599
side 872 160 934 197
side 1225 977 1285 1015