side 827 864 887 920
side 931 859 1001 921
side 1017 855 1083 909
side 1233 859 1293 901
correct 1118 861 1156 897
side 795 812 841 872
side 894 807 954 875
side 1061 803 1121 871
side 1005 801 1073 865
correct 849 809 893 849
correct 1116 808 1156 848
side 1173 787 1235 847
side 950 783 1010 851
side 842 752 891 820
side 902 757 944 815
side 999 752 1057 818
correct 952 754 995 798
correct 794 758 832 795
side 1126 750 1189 793
side 1066 742 1132 800
side 1006 700 1058 764
side 1114 695 1182 757
correct 843 700 883 740
side 956 688 1020 746
side 901 676 941 736
side 897 643 955 711
side 1008 643 1056 711
side 951 642 1015 710
side 1113 643 1171 709
correct 954 648 992 686
correct 843 646 882 686
correct 1171 646 1207 680
side 785 622 837 688
side 1059 616 1115 684
side 1049 591 1104 651
side 1225 588 1275 652
correct 848 591 891 634
side 893 563 947 629
side 948 561 1002 629
side 843 536 903 594
correct 736 542 774 579
correct 1224 536 1264 578
correct 1122 1026 1164 1067
correct 1226 1020 1270 1064
side 883 973 944 1032
correct 958 974 1004 1020
correct 1008 971 1053 1016
side 850 921 910 981
side 1114 915 1174 983
side 1169 912 1235 980
side 1206 908 1273 961
side 732 894 776 960
side 899 895 943 957