side 1020 847 1064 890
side 988 841 1022 892
side 1034 755 1072 815
side 981 756 1018 815
side 934 736 978 784
side 934 699 983 735
upwards 1036 698 1071 732
side 979 680 1020 739
side 990 684 1038 718
side 506 554 570 599
side 1116 160 1178 197
side 765 977 825 1015