upwards 1122 1050 1160 1088
upwards 1068 826 1108 870
upwards 1016 934 1056 976
upwards 1014 1150 1052 1198
upwards 962 885 1002 923
upwards 962 1099 1000 1139
upwards 904 1264 944 1308
upwards 853 932 893 972
upwards 800 1044 840 1084
upwards 797 826 839 864
upwards 798 1154 836 1192
upwards 1232 938 1272 980
upwards 1178 776 1218 814
upwards 1176 1214 1216 1254