side 1035 859 1076 908
upwards 874 852 917 895
side 826 844 878 884
side 1097 811 1147 866
correct 926 800 964 840
side 979 777 1029 842
side 757 770 817 839
side 1097 767 1157 830
side 910 744 973 808
correct 1040 751 1076 791
correct 989 748 1029 787
side 1090 722 1140 790
side 928 690 985 755
side 827 686 889 736
upwards 1090 641 1136 685
side 877 619 945 682
side 985 584 1035 650
side 1159 524 1211 572
side 948 1012 1016 1068
side 820 1003 869 1050
side 805 905 859 971
side 926 900 988 950