side 808 306 846 373
side 703 348 766 388
side 1004 337 1024 402
side 972 355 1008 418
side 856 420 908 479
side 789 432 833 495
side 890 469 952 512
side 838 484 894 538
correct 940 228 978 267
side 723 228 779 272
upwards 1845 475 1884 514
upwards 1898 525 1937 564
upwards 1739 579 1780 618
upwards 2010 688 2048 729
upwards 1630 695 1668 736
upwards 1690 855 1727 896
upwards 1949 358 1989 398
upwards 1677 418 1717 457
upwards 1353 1395 1394 1436
correct 1385 1445 1422 1483
side 1157 1491 1212 1538
upwards 1369 1523 1408 1538
upwards 1246 1530 1285 1538