correct 909 874 945 910
side 1156 872 1222 911
correct 909 817 946 855
side 1179 790 1219 854
side 1018 764 1057 828
side 778 755 839 804
side 884 760 945 799
side 1072 739 1110 801
side 1106 711 1163 752
correct 1071 710 1109 747
side 1017 684 1057 747
side 963 637 1022 695
side 744 628 791 691
side 1116 523 1165 585
side 1156 1038 1220 1077
side 1049 980 1107 1031
side 848 925 917 967
side 1125 905 1174 964