side 1162 854 1224 914
side 943 786 998 852
upwards 1211 753 1251 795
upwards 812 727 858 773
side 1020 712 1084 780
side 907 715 953 760
side 1247 658 1305 726
side 888 651 950 713
side 869 591 936 649
side 1262 552 1324 610
side 831 553 895 609
correct 1107 553 1148 595
correct 939 1037 979 1078
side 1072 993 1140 1048
side 860 938 922 1005
side 1292 902 1351 970