side 1 365 47 427
upwards 116 389 153 427
correct 60 446 95 481
side 2 443 44 504
side 108 449 152 510
side 1 538 38 590
correct 161 610 199 649
correct 179 177 215 216
side 222 233 271 295
side 1013 327 1070 382
side 1242 389 1287 450
upwards 984 444 1023 485
upwards 1380 469 1418 508
side 1156 463 1208 521
side 1281 479 1327 524
side 943 516 981 577
side 1289 530 1342 583
side 1302 597 1363 639
side 943 630 971 684
side 1343 636 1400 679
correct 1089 645 1126 683
correct 1258 163 1292 199
side 1097 196 1159 240
side 1317 238 1370 297
correct 1 981 11 1018
side 1737 926 1791 969
side 1944 970 1981 1029
side 1541 998 1585 1057
upwards 1777 1144 1813 1182
side 1888 1233 1947 1271