side 1212 850 1247 916
side 893 846 933 904
side 1131 846 1196 887
side 943 843 1000 889
side 986 764 1034 826
side 932 764 979 826
correct 1103 737 1142 775
side 1160 717 1216 776
side 1053 682 1107 734
side 866 624 926 676
side 1272 630 1332 669
side 1085 937 1134 993
side 883 923 917 985
side 1104 904 1139 967