side 870 746 928 786
side 888 767 940 821
side 1050 536 1106 582
side 1052 1013 1108 1067
side 1188 130 1246 182
side 1266 146 1322 198
side 1367 1064 1407 1126
side 637 1368 699 1412
side 781 616 833 668
side 845 203 903 241