side 891 883 953 935
side 967 840 1005 906
side 835 831 895 871
side 1131 817 1179 877
side 888 782 952 824
correct 1131 781 1169 821
side 1011 761 1061 825
side 1027 719 1081 763
side 957 707 997 767
side 855 676 907 732
side 941 669 1001 709
side 1129 649 1167 715
side 1055 620 1113 672
correct 861 625 897 663
correct 915 625 953 663
side 1177 585 1237 633
side 1294 565 1360 605
side 1159 563 1219 599
side 1019 543 1071 605
side 1181 501 1247 549
side 1277 489 1329 549
side 805 1003 863 1057
side 1297 1003 1369 1055
correct 1243 949 1279 987
side 1005 931 1063 989
side 1299 923 1341 989