correct 886 519 929 562
side 891 56 951 128
correct 953 117 1001 167
side 942 345 1015 411
side 958 1 1025 53
correct 436 494 483 538
side 536 470 596 543
side 561 223 610 279
side 605 247 672 321
correct 663 393 711 441
side 665 336 711 401
upwards 667 278 709 321
side 667 182 717 257
correct 670 106 718 154
side 698 261 770 329
side 707 90 771 152
side 714 448 775 518
correct 725 397 765 437
side 721 192 775 264
side 722 337 777 404
side 775 268 847 333
side 812 320 884 391