correct 226 471 263 510
side 504 480 565 528
side 216 531 265 594
correct 170 578 208 618
side 388 697 431 759
correct 277 749 313 789
side 483 752 534 813
side 212 751 261 815
side 596 756 640 819
correct 506 421 542 460
side 399 420 460 463
correct 610 428 644 464
side 1475 343 1511 400
side 1504 408 1568 449
upwards 1531 453 1570 492
side 1603 448 1648 511
upwards 1480 481 1523 520
upwards 1475 243 1503 280
side 1 1209 160 1253
correct 228 1209 394 1259
side 617 1209 839 1466
side 1093 1262 1273 1510
upwards 6 1312 168 1472
side 1132 1405 1344 1656
side 230 1437 455 1677
side 461 1703 724 1913
side 238 1751 408 2023
side 1151 1922 1423 2048
side 1 1885 192 2048