side 903 855 952 918
side 984 806 1046 846
side 961 736 1020 787
side 994 698 1050 736
side 1157 680 1210 729
side 1178 641 1237 687
side 776 637 837 690
upwards 854 581 892 619
side 1004 968 1052 1030
correct 1126 966 1164 1005
side 901 960 963 1009
side 1234 914 1269 976
side 1071 911 1106 975
side 1013 896 1068 952
side 1179 887 1216 952