side 1150 703 1184 762
side 1237 707 1293 756
side 1194 673 1240 731
side 1141 649 1199 685
side 1030 493 1090 527
side 1256 460 1305 519
side 1153 424 1185 480
side 1213 375 1268 427
side 668 1125 728 1166