side 1038 219 1092 273
side 980 234 1038 282
correct 838 289 879 330
side 1091 291 1146 343
side 932 323 981 379
side 890 370 928 435
side 1109 398 1146 451
side 940 481 981 542
side 998 492 1054 543
correct 722 503 767 546
correct 892 8 939 57
correct 1002 15 1043 56
side 758 67 822 106
side 949 122 988 185
side 987 162 1039 216
side 923 176 984 219
side 765 177 823 230
side 1855 29 1906 85
side 1793 29 1833 88
side 1701 128 1760 167
side 1860 246 1921 283
correct 1836 321 1872 357
side 1516 384 1559 447
side 2020 529 2048 588
correct 1722 6 1758 44
side 363 1025 407 1068
side 331 1023 365 1074
side 377 1099 415 1159
side 324 1100 361 1159
side 277 1130 321 1178
side 277 1179 326 1215
upwards 379 1182 414 1216
side 322 1176 363 1235
side 333 1196 381 1230
side 108 899 168 937
upwards 1790 1245 1828 1284
side 1740 1247 1801 1290
side 1890 1277 1941 1334
side 1498 1300 1554 1344
side 1770 1300 1831 1344
side 1850 1299 1893 1358
side 1611 1363 1669 1398
side 1727 1399 1784 1450
side 1784 1406 1842 1459
side 1572 1423 1619 1482
side 2019 1428 2048 1490
side 1848 1437 1894 1497
side 1752 1459 1811 1505
side 1675 1461 1734 1510
side 1959 1513 2000 1538
side 1653 1007 1706 1066
side 1726 1027 1765 1091
side 1548 1063 1596 1124
upwards 1859 1120 1894 1158
correct 1843 1136 1877 1173
side 1953 1155 1993 1219
side 1634 1184 1675 1231
correct 1792 1193 1830 1231
correct 1678 1199 1716 1238