side 1001 615 1042 673
side 1022 633 1076 685
side 792 795 837 851
side 1268 797 1322 853
side 386 933 437 991
side 402 1011 453 1068
side 1320 1112 1381 1152
side 1623 382 1668 444
side 871 526 924 578
side 458 590 496 648