side 1126 597 1185 653
side 907 656 960 715
side 832 663 893 715
side 1128 758 1177 818
correct 1072 778 1111 819
side 730 788 786 848
side 939 834 1001 874
side 1078 835 1137 881
side 838 893 899 947
side 968 893 1007 954
side 917 946 978 994
correct 957 508 1000 549
correct 847 562 890 604
side 1021 566 1067 618