side 1105 548 1171 584
side 1101 862 1159 902
side 1100 600 1142 664
side 1098 796 1144 852
side 1019 761 1081 809
side 1019 816 1081 864
correct 992 654 1030 692
side 972 579 1030 635
side 937 688 989 742
side 879 869 931 929
side 884 463 924 523
side 1192 662 1248 710
side 1178 878 1240 912
side 1158 656 1222 692