side 939 809 987 867
side 1021 807 1065 863
side 980 772 1034 816
side 898 772 960 813
side 909 731 968 770
upwards 1086 718 1123 754
upwards 891 700 925 734
side 1107 660 1157 713
upwards 1003 651 1039 688
correct 1038 604 1074 640
side 990 495 1050 534