correct 75 553 112 589
correct 294 554 329 590
correct 241 558 275 593
correct 352 557 388 593
correct 458 557 492 593
correct 511 559 546 593
correct 133 610 167 645
correct 188 609 225 645
correct 404 611 438 645
correct 458 611 492 645
correct 353 612 386 646
correct 568 611 603 647
correct 294 662 331 698
correct 568 663 603 698
correct 134 665 167 698
correct 78 663 113 699
correct 461 664 493 698
correct 355 666 390 701
correct 241 665 276 701
correct 514 666 548 702
correct 513 716 550 754
correct 188 719 222 753
correct 566 718 603 754
correct 404 720 438 754
correct 299 720 334 756
correct 298 772 333 784
correct 188 772 222 784
correct 134 773 169 784
correct 511 771 548 784
correct 565 772 603 784
correct 78 773 113 784
correct 404 774 440 784
correct 74 388 110 426
correct 186 389 224 427
correct 517 391 552 427
correct 298 392 332 428
correct 567 392 603 430
correct 462 394 495 429
correct 243 444 279 479
correct 133 444 168 480
correct 296 445 330 481
correct 350 445 385 482
correct 405 447 439 481
correct 569 448 605 485
correct 133 499 167 534
correct 183 498 220 534
correct 408 500 443 534
correct 298 501 332 535
correct 512 502 548 537
correct 460 503 495 539
correct 567 504 602 539
correct 1416 1 1453 27
correct 1305 1 1342 28
correct 1526 1 1563 29
correct 1470 1 1508 30
correct 1631 1 1669 30
correct 1687 1 1723 30
correct 1796 1 1833 30
correct 1578 1 1616 29
correct 1416 43 1454 83
correct 1472 44 1508 82
correct 1361 47 1397 82
correct 1306 45 1345 84
correct 1582 45 1617 83
correct 1632 45 1669 83
correct 1689 45 1724 83
correct 1414 98 1452 137
correct 1582 99 1617 135
correct 1742 99 1777 135
correct 1527 100 1564 138
correct 1473 153 1507 188
correct 1528 153 1563 189
correct 1740 153 1778 190
correct 1634 153 1668 189
correct 1687 153 1722 189
correct 1306 154 1341 190
correct 1418 154 1456 190
correct 1580 155 1616 191
correct 1743 206 1777 243
correct 1527 207 1563 242
correct 1418 206 1453 242
correct 1362 209 1397 243
correct 1474 208 1509 244
correct 1635 208 1671 246
correct 1793 209 1830 245
correct 1306 210 1344 247
correct 1687 210 1723 249
correct 1739 258 1777 296
correct 1795 259 1831 297
correct 1527 263 1561 297
side 348 1086 412 1131
side 1781 832 1835 893
side 1835 832 1876 893
side 1667 853 1720 900
side 1943 888 2005 945
correct 1614 913 1652 951
side 1668 945 1727 1003
side 1606 785 1656 806
correct 1892 799 1928 835
correct 1779 800 1815 839
correct 1944 802 1983 839
correct 1835 803 1873 839