side 854 936 906 988
upwards 872 1069 912 1107
side 901 844 965 884
side 927 954 981 1018
side 1033 876 1077 938
side 1142 954 1194 1014
side 1144 844 1202 900
side 706 764 748 828
side 797 996 857 1050