correct 898 723 934 759
correct 1282 775 1318 812
correct 1120 887 1157 923
correct 1172 940 1208 975
correct 1066 940 1101 975
correct 1121 942 1158 979
correct 1176 994 1212 1031
correct 899 995 937 1034
correct 1172 1047 1209 1086
correct 1122 1050 1158 1088
correct 1119 1100 1154 1139
correct 1120 1159 1156 1197
correct 1287 1212 1323 1250