side 958 1 999 49
upwards 800 16 836 52
side 751 25 800 61
side 1023 45 1067 94
correct 850 69 886 106
side 908 68 946 128
side 687 73 733 134
side 1025 81 1076 137
side 838 104 890 159
correct 963 117 999 156
correct 913 122 951 159
side 1019 120 1057 183
side 857 156 901 214
side 751 173 811 219
upwards 1017 225 1056 263
side 805 232 864 283
side 915 260 952 321
side 1084 337 1133 381
side 1378 492 1429 554
side 1310 530 1360 587
side 1435 549 1499 589
correct 1432 603 1470 643
correct 1657 277 1695 317
side 479 1382 522 1441
correct 370 1433 406 1471
side 345 1481 404 1525
side 697 1495 734 1538
correct 536 1273 572 1307
correct 752 1331 786 1366
upwards 1997 1241 2036 1280
upwards 1827 1243 1866 1282
upwards 1996 1352 2031 1391
upwards 1943 1458 1983 1498
upwards 1824 1078 1861 1116
upwards 1936 1133 1976 1173