side 1120 572 1174 632
side 1121 680 1169 742
side 1118 764 1156 826
side 1114 978 1156 1038
correct 1116 863 1152 901
side 1067 540 1127 586
side 1066 646 1126 692
side 1062 812 1122 860
side 1062 754 1114 814
correct 1066 596 1102 636
correct 1066 864 1100 898
side 1044 920 1100 978
side 1042 702 1102 748
side 1009 591 1073 631
side 1012 647 1070 689
side 1010 750 1070 796
correct 1012 700 1050 736
correct 1014 540 1048 576
side 1008 872 1044 932
side 1004 814 1048 874
side 958 756 1016 798
side 956 864 1006 922
correct 957 590 993 626
side 950 704 994 762
side 932 648 990 684
side 902 648 962 694
side 900 760 964 794
side 902 702 960 754
side 902 863 960 911
correct 906 702 938 734
correct 902 589 940 625
correct 901 916 935 952
side 880 536 940 576
side 874 810 936 854
side 848 796 904 846
side 846 974 904 1016
correct 848 595 886 633
side 820 646 882 684
side 818 701 882 739
side 794 591 846 645
correct 798 482 832 518
correct 794 972 830 1006
correct 1284 870 1318 906
correct 1278 974 1316 1012
side 1228 628 1286 688
correct 1233 707 1271 745
correct 1229 756 1267 794
side 1181 600 1231 650
side 1174 864 1234 914
side 1172 920 1230 974
side 1171 952 1207 1016
side 1149 477 1215 521
side 1150 644 1212 688