side 1090 223 1128 283
side 980 273 1018 334
side 1034 275 1072 337
side 1248 338 1284 398
side 1144 374 1194 415
side 873 403 911 459
side 1020 413 1063 472
correct 1349 501 1387 539
side 1076 1 1137 40
side 1151 29 1197 93
side 1206 170 1268 209
correct 872 211 910 249
side 1253 204 1291 265
side 1442 1 1510 25
side 1414 41 1427 102
side 1438 233 1477 295
correct 1434 309 1470 349
correct 345 1191 382 1229
side 510 1195 569 1249
correct 402 1251 438 1289
correct 618 1313 652 1348
side 559 1310 600 1375
side 506 1338 548 1401
correct 776 1424 814 1462
side 278 1459 340 1507
side 551 1034 609 1078
correct 410 1082 445 1116
correct 572 1092 609 1130
correct 632 1095 667 1131