side 1100 600 1158 666
side 990 855 1054 919
side 922 391 980 439
side 888 490 957 543
correct 784 551 827 595
side 764 592 826 648
side 1266 852 1324 914
side 1204 819 1264 862
side 1144 440 1199 481