side 446 603 490 679
side 596 638 660 692
side 382 663 430 719
side 153 679 217 731
correct 270 689 314 731
side 543 731 599 779
side 270 741 338 789
side 683 749 731 807
side 503 801 565 855
correct 212 852 258 898
correct 327 852 373 898
side 184 895 252 945
side 267 889 317 955
side 301 911 369 963
side 131 427 195 495
side 327 431 373 499
correct 327 513 373 559
correct 559 517 605 563
side 357 566 427 616
side 504 574 550 644