side 911 893 973 933
side 1085 857 1125 917
side 759 839 811 901
side 647 843 703 895
side 967 843 1029 885
side 1037 802 1079 864
side 1063 781 1105 843
side 945 767 1005 811
correct 851 718 891 756
correct 1289 717 1327 755
side 1033 703 1083 759
side 975 598 1039 644
correct 809 575 849 613
side 1109 1001 1165 1055
correct 1007 999 1047 1037
side 909 943 961 1001
correct 1035 949 1075 987
side 669 929 725 981
correct 1058 900 1094 936