side 1125 1178 1191 1224
upwards 1137 873 1175 911
side 1130 656 1174 720
side 1120 600 1172 660
side 1109 548 1167 586
side 1088 741 1132 797
side 1073 744 1111 804
side 1023 630 1069 692
side 1022 741 1070 805
side 1022 820 1068 884
side 1007 927 1067 985
side 1002 702 1064 748
side 955 636 1009 694
side 948 771 1008 815
side 942 490 1006 522
side 912 547 976 589
side 922 853 962 913
side 910 491 964 549
side 915 686 953 750
side 910 603 954 665
side 903 812 959 860
side 898 766 956 814
side 858 601 918 647
upwards 863 821 903 855
side 849 768 901 826
side 844 664 894 710
side 839 554 893 598
side 829 490 897 530
side 812 530 856 582
side 789 716 845 766
side 779 604 841 642
side 782 1045 822 1113
side 746 910 792 974
side 1458 817 1522 871
side 1278 582 1338 636
side 1242 635 1298 691
side 1230 1140 1290 1200
side 1194 766 1248 814
side 1196 822 1242 878
side 1189 706 1239 768
upwards 1188 658 1226 694
upwards 1186 486 1228 530
side 1167 533 1227 583