correct 1504 59 1540 94
upwards 1384 67 1424 110
side 1575 74 1628 130
correct 1461 89 1494 125
upwards 1137 92 1180 132
correct 1340 100 1377 139
correct 1533 105 1571 141
side 1582 126 1643 162
side 1674 120 1718 176
upwards 1284 127 1328 169
correct 1365 145 1404 183
side 1491 173 1554 220
side 1712 185 1776 226
upwards 1590 194 1628 233
correct 1468 204 1507 242
upwards 1348 216 1389 257
correct 1545 226 1581 263
upwards 1228 229 1267 270
upwards 1739 230 1778 269
side 1811 225 1856 288
upwards 1423 238 1462 279
upwards 1301 250 1339 288
correct 1498 256 1532 290
upwards 1688 258 1731 297
side 1223 276 1293 319
correct 1449 284 1490 322
upwards 1602 314 1639 357
upwards 1478 331 1515 370
upwards 1361 341 1401 384
side 1526 345 1590 391
correct 1369 458 1412 504
upwards 1397 509 1440 550
side 1469 1 1506 32
upwards 1596 1 1635 39
upwards 1674 20 1710 56
side 1478 24 1523 78
upwards 1307 52 1345 93
side 1692 1029 1726 1088
side 1779 1035 1835 1084
side 1736 1059 1782 1117
side 1683 1105 1741 1141
side 1572 1263 1632 1297
side 1798 1272 1847 1331
side 1695 1310 1727 1366
side 1755 1363 1810 1415
side 1210 646 1271 666