side 862 298 900 360
side 892 26 940 88
correct 909 218 945 256
side 908 354 952 416
side 914 161 972 199
side 930 27 988 77
side 938 214 998 254
correct 964 110 1002 146
correct 968 157 1004 195
side 966 48 1030 90
side 997 210 1055 256
side 1008 299 1058 363
side 1063 22 1113 92
side 1070 244 1114 310
side 1178 250 1232 312
side 1186 1 1229 41
side 690 152 728 216
side 698 294 738 356
side 776 320 840 368
upwards 800 206 842 252
side 841 268 895 322
side 844 104 894 158