correct 777 633 813 671
side 315 642 379 690
correct 375 702 419 742
side 607 691 659 755
side 232 712 304 760
correct 752 183 790 225
side 727 284 795 338
side 480 308 532 352
side 506 357 572 409
correct 651 413 693 451
side 591 411 655 455
upwards 534 413 574 453
side 439 417 509 457
correct 363 417 407 461
side 521 447 579 511
side 346 453 406 515
side 706 463 770 515
correct 653 471 691 509
side 450 473 516 513
side 593 469 657 519
side 530 524 580 588
side 581 563 639 623