upwards 1227 644 1265 684
upwards 1009 651 1047 691
upwards 1061 701 1101 741
upwards 1225 751 1265 789
upwards 903 755 943 795
upwards 1175 865 1213 905
upwards 794 871 832 913
upwards 853 1031 891 1073
upwards 1113 535 1153 575
upwards 841 595 881 633