side 1164 775 1212 834
side 1266 757 1320 810
upwards 1058 734 1096 772
side 1071 620 1132 658
side 632 595 663 656
side 974 584 1018 640
side 637 572 695 620
side 1146 560 1200 609
side 919 510 956 569
side 952 511 1006 565
side 1374 335 1426 394