side 1060 850 1108 910
side 1004 843 1064 916
side 1171 830 1231 896
side 773 838 836 882
side 1167 798 1235 864
side 964 790 1002 854
correct 1173 795 1215 835
side 989 785 1059 843
side 1231 778 1302 844
side 843 762 901 834
side 1124 716 1168 780
side 903 709 957 777
side 1126 671 1196 731
side 1055 661 1117 731
side 903 654 955 719
side 962 627 1010 692
correct 1071 630 1117 676
correct 857 625 899 667
side 1125 576 1171 642
side 1179 520 1229 588
correct 1293 528 1337 568
correct 800 517 848 564
correct 900 1006 941 1049
correct 796 1004 836 1046
side 1212 963 1270 1029
side 1147 953 1217 1008
correct 1062 956 1108 1004
correct 1011 952 1057 997
side 895 897 946 961
side 1151 898 1224 958
side 792 892 861 944
side 1282 881 1346 951