side 0.667779 989 591 1053 654 
side 0.598379 1333 949 1393 1016 
side 0.56897 832 1094 894 1158 
side 0.550308 1059 591 1119 654 
side 0.478261 973 388 1024 451 
side 0.472845 1135 688 1203 737 
side 0.471614 764 738 832 791 
side 0.452769 977 807 1044 850 
correct 0.32146 1027 889 1067 926 
correct 0.287222 1136 569 1181 612 
