correct 0.401878 783 809 821 844 
correct 0.383193 1268 965 1308 1005 
correct 0.38101 1212 970 1252 1009 
correct 0.375979 1269 700 1309 736 
correct 0.374169 781 475 819 511 
correct 0.367871 781 973 822 1007 
correct 0.367494 1051 858 1088 894 
correct 0.366457 1162 575 1197 608 
correct 0.358654 884 913 924 951 
correct 0.350496 892 700 929 737 
correct 0.349226 1160 911 1199 948 
correct 0.348223 836 759 874 793 
correct 0.346244 997 915 1033 951 
correct 0.345569 836 864 874 901 
correct 0.343665 888 968 926 1006 
correct 0.342519 781 698 817 730 
correct 0.342439 782 535 819 569 
correct 0.338319 940 914 976 949 
correct 0.332847 1160 698 1200 735 
correct 0.332263 1213 694 1253 732 
correct 0.331985 1105 642 1144 679 
correct 0.331478 1104 910 1143 947 
correct 0.328878 937 700 975 735 
correct 0.328848 997 958 1033 994 
correct 0.328673 1105 752 1145 791 
correct 0.327929 942 803 979 838 
correct 0.327297 834 593 872 629 
correct 0.327038 998 531 1035 567 
correct 0.326177 836 910 874 944 
correct 0.324669 1213 806 1253 842 
correct 0.320796 1053 588 1091 625 
correct 0.319599 1273 473 1313 511 
correct 0.31939 1219 645 1258 682 
correct 0.315811 940 966 977 1003 
correct 0.315604 1161 583 1201 620 
correct 0.315532 998 644 1035 679 
correct 0.314878 1106 693 1146 733 
correct 0.313309 837 474 875 511 
correct 0.312442 1157 966 1197 1005 
correct 0.312216 1050 752 1088 788 
correct 0.311112 888 476 925 512 
correct 0.310629 1049 971 1085 1005 
correct 0.310501 996 752 1035 789 
correct 0.310455 890 588 927 621 
correct 0.309441 995 696 1034 734 
correct 0.306139 891 533 928 567 
correct 0.305624 940 590 976 623 
correct 0.304957 990 910 1027 945 
correct 0.303897 997 968 1036 1005 
correct 0.303741 1105 859 1143 896 
correct 0.300471 889 804 927 840 
correct 0.30045 1270 588 1311 626 
correct 0.300384 996 863 1034 899 
correct 0.298984 1049 804 1089 841 
correct 0.297802 1215 750 1255 787 
correct 0.297708 783 642 821 678 
correct 0.296575 1216 529 1255 565 
correct 0.295576 998 480 1035 514 
correct 0.294715 1269 859 1308 896 
correct 0.292941 1026 970 1064 1006 
correct 0.291899 1162 806 1200 844 
correct 0.290933 1108 475 1146 512 
correct 0.286914 1272 910 1311 947 
correct 0.286558 891 961 928 997 
correct 0.283232 832 970 870 1006 
correct 0.283089 1166 530 1205 568 
correct 0.280634 1158 860 1198 896 
correct 0.280206 1054 535 1092 572 
correct 0.271572 984 696 1021 732 
correct 0.270809 1107 891 1145 927 
correct 0.266481 982 967 1019 1004 
correct 0.260849 835 879 873 914 
correct 0.260403 1018 753 1056 789 
correct 0.246759 1160 953 1197 990 
correct 0.246126 997 885 1033 920 
correct 0.245881 1063 531 1099 568 
correct 0.242733 837 949 873 985 
correct 0.239233 1162 540 1200 572 
correct 0.238247 1161 886 1198 921 
correct 0.237722 957 476 992 513 
correct 0.23764 965 533 997 570 
correct 0.235046 781 483 818 520 
correct 0.231397 1022 860 1060 895 
correct 0.228772 1270 919 1309 953 
correct 0.22528 1270 954 1308 989 
correct 0.222791 1022 475 1059 511 
correct 0.21732 889 554 927 588 
correct 0.206262 1153 699 1187 735 
correct 0.205579 880 803 917 840 
correct 0.205412 1054 550 1092 585 
correct 0.204061 840 752 878 787 
correct 0.203063 1006 533 1044 567 
correct 0.201813 932 585 969 619 
correct 0.201602 1108 635 1148 673 
correct 0.201182 850 867 887 899 
