side 0.820892 875 745 939 817 
side 0.675711 1185 121 1256 186 
side 0.635274 1044 1004 1113 1070 
side 0.617358 1358 1062 1413 1129 
side 0.538742 1262 142 1326 197 
side 0.487281 633 1362 701 1408 
side 0.476255 778 609 836 671 
side 0.468398 1046 532 1106 582 
side 0.438543 840 195 909 248 
side 0.420128 865 733 930 793 
