side 0.976096 820 259 898 327 
side 0.916384 988 259 1060 325 
side 0.911926 776 25 848 95 
side 0.909062 1171 373 1238 449 
correct 0.51468 738 548 780 590 
side 0.464857 1178 437 1228 502 
side 0.456159 845 326 891 390 
side 0.427645 853 492 909 553 
correct 0.37345 1227 202 1280 255 
correct 0.353574 952 377 1002 425 
correct 0.349104 788 203 834 250 
correct 0.331752 789 149 834 194 
correct 0.31425 1010 209 1055 253 
correct 0.307895 1228 542 1277 588 
