side 0.67376 1785 1174 1856 1232 
side 0.65563 1704 965 1765 1020 
side 0.620465 1676 1112 1745 1166 
side 0.59734 1616 787 1685 841 
side 0.585009 1676 1016 1746 1071 
side 0.571466 1781 939 1846 995 
side 0.551117 1674 895 1743 947 
side 0.537806 1615 1129 1669 1193 
side 0.529318 1875 1222 1938 1285 
side 0.522984 1562 967 1607 1034 
side 0.51948 1506 1024 1554 1088 
side 0.515679 1785 882 1841 938 
side 0.480899 1573 896 1644 943 
side 0.44934 1889 943 1956 994 
side 0.44177 1624 959 1691 1004 
side 0.419561 1617 1019 1665 1082 
side 0.39919 1674 966 1747 1018 
side 0.397744 1387 1025 1444 1085 
side 0.382937 1886 901 1935 962 
side 0.379501 1628 1067 1684 1115 
correct 0.378591 1894 1008 1946 1044 
correct 0.372344 1732 1074 1771 1114 
side 0.371817 1815 1009 1880 1059 
side 0.342578 1660 1068 1709 1113 
correct 0.340266 1662 791 1725 840 
correct 0.338015 1671 798 1716 838 
correct 0.330735 1463 1187 1504 1226 
side 0.322408 1620 1044 1668 1105 
correct 0.319913 1784 1075 1823 1110 
correct 0.313018 1396 808 1437 847 
correct 0.312069 1890 1167 1929 1207 
side 0.293353 1595 900 1654 950 
side 0.287879 1622 932 1672 996 
correct 0.285632 1782 1012 1823 1050 
side 0.284847 1618 919 1665 981 
correct 0.250353 1777 1005 1820 1044 
side 0.242288 1649 964 1726 1010 
side 0.232777 1726 966 1772 1019 
correct 0.232383 1670 1057 1720 1109 
