side 0.932412 1284 610 1356 675 
side 0.89235 922 887 1000 944 
side 0.888715 1167 648 1233 717 
side 0.826795 876 824 950 884 
side 0.758423 898 879 978 942 
side 0.692902 830 933 901 993 
side 0.677988 1259 718 1329 772 
side 0.674644 901 948 962 1015 
side 0.54688 1171 566 1222 632 
side 0.531734 819 893 894 939 
side 0.520914 1151 777 1217 823 
side 0.508873 820 620 894 670 
side 0.495286 954 437 1015 498 
side 0.484894 1041 836 1111 886 
side 0.483621 1121 607 1185 657 
side 0.448486 1009 515 1055 577 
side 0.423221 1092 728 1162 771 
correct 0.402893 1114 568 1159 610 
correct 0.373725 1116 783 1157 825 
correct 0.362913 958 623 1000 662 
correct 0.3609 796 522 838 561 
correct 0.357204 1287 890 1335 937 
correct 0.355136 1010 788 1057 831 
correct 0.33534 1065 783 1109 827 
upwards 0.326694 1174 511 1217 553 
correct 0.32401 1014 623 1057 664 
correct 0.203835 1120 590 1167 635 
