side 0.877723 923 725 995 790 
side 0.83171 986 710 1054 778 
side 0.786892 1232 485 1305 544 
side 0.702507 1185 844 1248 910 
side 0.586996 1009 544 1068 614 
side 0.557818 971 786 1040 843 
side 0.545642 1049 600 1126 654 
side 0.530095 1074 859 1127 927 
side 0.496218 988 502 1051 562 
side 0.455695 1094 776 1164 823 
side 0.450686 948 675 1007 738 
side 0.411769 1062 584 1134 636 
correct 0.348752 1135 558 1181 598 
correct 0.324363 1199 647 1245 690 
correct 0.296248 1153 483 1196 523 
