correct 0.415388 1056 755 1101 795 
correct 0.372671 785 706 825 744 
correct 0.365353 785 917 826 956 
correct 0.364412 1269 760 1310 796 
correct 0.36196 1219 757 1260 795 
correct 0.359839 1218 866 1260 902 
correct 0.35907 788 972 828 1010 
correct 0.352563 1054 812 1098 853 
correct 0.349417 1111 759 1154 795 
correct 0.348537 821 758 863 797 
correct 0.347683 788 864 830 902 
correct 0.340799 1110 973 1151 1009 
correct 0.340502 1221 703 1259 740 
correct 0.339274 949 976 989 1013 
correct 0.338694 1216 591 1258 628 
correct 0.336827 890 758 929 794 
correct 0.335966 950 818 990 852 
correct 0.332193 896 702 935 739 
correct 0.329521 785 594 826 634 
correct 0.328627 787 806 829 845 
correct 0.328378 999 755 1040 794 
correct 0.325868 953 868 991 903 
correct 0.32348 784 539 825 577 
correct 0.323277 949 708 988 744 
correct 0.322915 1003 707 1043 744 
correct 0.322651 1059 646 1102 685 
correct 0.322061 843 915 880 955 
correct 0.320924 1054 537 1100 578 
correct 0.32073 1163 924 1203 961 
correct 0.32024 1055 864 1097 902 
correct 0.319669 1277 482 1320 523 
correct 0.31782 895 650 938 688 
correct 0.317758 1058 974 1099 1012 
correct 0.313637 1106 537 1152 575 
correct 0.313422 1168 814 1208 851 
correct 0.31293 843 865 879 903 
correct 0.312486 999 648 1042 689 
correct 0.311946 886 918 925 956 
correct 0.311802 1109 648 1152 686 
correct 0.311338 947 592 988 629 
correct 0.308742 1165 865 1205 901 
correct 0.307332 841 807 881 844 
correct 0.306962 831 810 874 848 
correct 0.306363 1055 593 1096 632 
correct 0.306115 1001 538 1044 578 
correct 0.305873 831 485 872 522 
correct 0.302834 1220 971 1261 1010 
correct 0.302711 786 487 830 522 
correct 0.300843 1277 643 1321 683 
correct 0.300665 786 739 825 775 
correct 0.298948 785 750 827 788 
correct 0.292561 835 595 876 633 
correct 0.291888 891 598 933 635 
correct 0.291699 1277 975 1316 1012 
correct 0.289708 895 749 933 785 
correct 0.285886 1164 700 1207 739 
correct 0.27897 1275 865 1317 903 
correct 0.276335 841 651 881 689 
correct 0.275658 1220 536 1262 576 
correct 0.273391 1052 485 1096 524 
correct 0.271038 1167 591 1212 630 
correct 0.270651 835 758 876 796 
correct 0.268078 947 541 989 578 
correct 0.26723 891 489 932 523 
correct 0.26703 1005 918 1046 954 
correct 0.258722 1277 918 1317 955 
correct 0.256854 1167 484 1208 522 
correct 0.256521 880 597 921 633 
correct 0.241812 1219 747 1259 781 
correct 0.237323 1003 734 1042 770 
correct 0.226577 825 916 866 955 
correct 0.22298 903 700 946 735 
correct 0.215571 840 752 878 788 
correct 0.213068 907 594 949 631 
correct 0.210713 784 931 824 968 
correct 0.208115 1001 700 1042 735 
correct 0.207104 896 665 938 703 
correct 0.205598 1052 527 1095 569 
correct 0.200758 852 648 892 684 
