side 0.534175 833 633 897 688 
side 0.475029 852 538 899 600 
side 0.469372 958 736 1003 795 
side 0.464466 1019 651 1081 692 
side 0.461212 842 899 891 959 
side 0.45794 789 895 834 958 
side 0.45536 1072 871 1121 932 
side 0.454906 965 593 1031 638 
side 0.452974 1013 869 1078 912 
side 0.451227 1207 929 1272 965 
side 0.44489 880 802 946 853 
side 0.439782 935 704 1001 742 
side 0.434389 842 1030 906 1081 
side 0.425486 901 918 969 969 
side 0.422482 955 979 1010 1039 
side 0.420799 909 517 955 578 
side 0.41315 1147 871 1212 908 
side 0.409458 879 754 947 797 
correct 0.391554 744 644 785 682 
side 0.389676 1098 709 1165 752 
side 0.378431 769 962 827 1005 
side 0.372924 1072 652 1143 690 
correct 0.347934 747 542 787 578 
correct 0.34777 797 804 836 842 
correct 0.32962 1235 548 1272 586 
correct 0.323611 946 920 992 961 
side 0.318466 1104 811 1152 853 
correct 0.31109 1122 816 1160 854 
side 0.310623 1067 804 1131 855 
correct 0.30736 797 758 838 797 
correct 0.291877 1134 599 1171 638 
correct 0.289298 1229 1043 1267 1078 
side 0.257354 777 946 829 993 
correct 0.246422 742 637 783 671 
correct 0.235806 1130 608 1168 641 
